Data transformation - Home
…
batters %>% 
  filter(ab > 100) %>% 
  ggplot(mapping = aes(x = ab, y = ba)) +
    geom_point() + 
    geom_smooth(se = FALSE)

    <img src="https://d33wubrfki0l68.cloudfront.net/85bae12481eef8ba696569a34d0bde264527296c/9da2c/transform_files/figure-html/unnamed-chunk-43-1.png" alt="img R" 

This also has important implications for ranking.
If you naively sort on desc(ba), the people with the best batting averages are clearly lucky, not skilled:

batters %>% 
  arrange(desc(ba))
#> # A tibble: 19,689 x 3
#>   playerID     ba    ab
#>   <chr>     <dbl> <int>
#> 1 abramge01     1     1
#> 2 alanirj01     1     1
#> 3 alberan01     1     1
#> 4 banisje01     1     1
#> 5 bartocl01     1     1
#> 6 bassdo01      1     1
#> # … with 19,683 more rows
…
